InputIndices,Test runtime
0,0
100,0
200,0
300,0
400,1
500,1
600,1
700,1
800,2
900,2
1000,3
1100,3
1200,3
1300,3
1400,3
1500,5
1600,5
1700,4
1800,4
1900,5
2000,5
2100,4
2200,6
2300,6
2400,5
2500,5
2600,5
2700,6
2800,5
2900,5
3000,4
3100,5
3200,6
3300,5
3400,6
3500,8
3600,7
3700,6
3800,7
3900,7
4000,6
4100,7
4200,8
4300,9
4400,9
4500,8
4600,8
4700,11
4800,10
4900,10
5000,10
5100,11
5200,12
5300,14
5400,12
5500,12
5600,11
5700,15
5800,13
5900,15
6000,13
6100,13
6200,13
6300,14
6400,17
6500,18
6600,17
6700,15
6800,19
6900,17
7000,19
7100,15
7200,17
7300,22
7400,20
7500,18
7600,17
7700,16
7800,17
7900,21
8000,18
8100,19
8200,22
8300,17
8400,17
8500,17
8600,20
8700,25
8800,24
8900,24
9000,20
9100,20
9200,19
9300,20
9400,23
9500,24
9600,23
9700,25
9800,22
9900,24
10000,21
10100,22
10200,25
10300,21
10400,22
10500,18
10600,18
10700,18
10800,18
10900,16
11000,21
11100,16
11200,21
11300,19
11400,18
11500,14
11600,19
11700,16
11800,18
11900,19
12000,19
12100,17
12200,19
12300,21
12400,15
12500,17
12600,16
12700,12
12800,17
12900,16
13000,14
13100,14
13200,16
13300,15
13400,12
13500,13
13600,17
13700,17
13800,20
13900,16
14000,15
14100,13
14200,17
14300,15
14400,11
14500,12
14600,13
14700,13
14800,10
14900,10
15000,10
15100,10
15200,9
15300,10
15400,8
15500,9
15600,9
15700,9
15800,10
15900,9
16000,9
16100,10
16200,8
16300,8
16400,8
16500,6
16600,6
16700,8
16800,7
16900,6
17000,6
17100,6
17200,7
17300,6
17400,5
17500,6
17600,6
17700,5
17800,5
17900,4
18000,4
18100,4
18200,3
18300,3
18400,3
18500,3
18600,3
18700,2
18800,2
18900,2
19000,2
19100,2
19200,1
19300,1
19400,1
19500,1
19600,0
19700,0
19800,0
19900,0